10009
100133941
1012
10163
10215
10232
10253
1026
1029
10381
10395
10401
10413
1045
1048
10630
10631
10928
11009
11065
11080
11095
11149
11186
11197
1138
1139
114790
1234
1236
1244
1272
1316
135228
1385
1400
1440
1445
145624
1475
1485
1490
1499
1500
154
1543
1544
1545
1553
1571
1612
1620
1649
1673
1728
1748
177
1786
1789
1803
1832
1845
1846
1869
1889
1890
1894
190
1917
1956
196
1969
1977
1978
1984
2023
2030
2034
2049
2051
2056
2064
2065
2067
2068
207
2073
2099
2100
2113
2139
2152
2170
2202
2264
2272
2277
22985
2305
2309
2321
2324
2335
23405
23512
2353
23705
238
2444
2475
2526
2532
25816
25898
2591
26524
2697
27133
2719
27436
283
2833
28984
290
2925
2934
2944
2950
2952
3002
3082
3091
3117
3146
3162
3219
3225
324
3248
3265
326624
331
3315
332
3320
3371
3381
346389
347733
3479
348
3480
3481
3486
3490
3491
355
3553
3558
3565
3569
3576
3579
3596
3605
3611
362
3622
3624
3678
3684
3685
3688
3691
3697
3699
3728
3732
3791
3814
3815
3838
3845
3855
3856
387
3875
388
3880
389
3952
3958
4023
4060
406881
406918
406937
406988
406991
4070
407000
407001
4072
4091
4100
4170
4171
4221
4232
4233
4255
4282
4288
429
4292
4313
4316
4318
4319
43847
4436
4481
4507
4524
4582
4609
4610
4734
4790
4826
4830
4851
4893
4904
4915
4921
4968
5037
5052
50616
50855
51029
5111
51147
51176
51256
51284
51311
5155
5156
51741
5243
5268
5272
5284
5290
5294
5300
5328
5451
54541
5460
5468
55210
55290
55743
5578
558
5580
55824
5584
5594
5595
5604
563
5646
56616
57007
572
5728
5731
5742
5743
5744
5745
5747
5764
5781
5829
5879
5883
5894
5910
5915
5925
5931
596
598
6240
6241
627
6275
6277
6278
6279
6280
6286
6288
6319
634
637
6387
6422
64754
648
64840
64866
650
6502
6513
653509
659
660
6624
6648
6662
6667
6678
6696
6714
672
673
675
6774
6794
6804
6916
7015
7040
7048
7049
7080
7124
7153
7157
7161
7329
7367
7392
7421
7422
7424
7447
7465
7490
7508
7515
7520
780
7846
7852
7869
79444
7980
80279
8038
80381
8061
81557
8202
8289
8326
83593
8406
842
8434
8493
8553
857
8626
8637
864
8667
8682
8741
8743
8772
8837
8838
8842
891
8932
9021
9037
9048
9133
9154
916
9212
9255
929
940
9423
9429
945
9476
9510
967
9718
978
9817
994
9940
9961
998
9984
999
